%YAML 1.1
%TAG !u! tag:unity3d.com,2011:
--- !u!21 &2100000
Material:
  serializedVersion: 6
  m_ObjectHideFlags: 0
  m_PrefabParentObject: {fileID: 0}
  m_PrefabInternal: {fileID: 0}
  m_Name: FX_sound_wave
  m_Shader: {fileID: 4800000, guid: 35e4476400fe4914b9a84c2692b39bf6, type: 3}
  m_ShaderKeywords: 
  m_LightmapFlags: 5
  m_CustomRenderQueue: -1
  stringTagMap: {}
  m_SavedProperties:
    serializedVersion: 2
    m_TexEnvs:
    - first:
        name: _MainTex
      second:
        m_Texture: {fileID: 0}
        m_Scale: {x: 1, y: 1}
        m_Offset: {x: 0, y: 0}
    m_Floats:
    - first:
        name: _Force
      second: 0.05
    - first:
        name: _Noise
      second: 0.4
    - first:
        name: _Radius
      second: 0.1331287
    - first:
        name: _Width
      second: 0.005
    m_Colors:
    - first:
        name: _Center
      second: {r: -0.0038217895, g: 0.91591996, b: 0.9159241, a: 0}
    - first:
        name: _Color
      second: {r: 0, g: 0.17241383, b: 1, a: 0.59768736}
